{
  "code": 200,
  "meta": {
    "pagination": {
      "total": 1915,
      "pages": 96,
      "page": 1,
      "limit": 20
    }
  },
  "data": [
    {
      "id": 20,
      "user_id": 14,
      "title": "Vorago altus casso comis ter vulpes talio.",
      "due_on": "2021-09-29T00:00:00.000+05:30",
      "status": "completed"
    },
    {
      "id": 21,
      "user_id": 14,
      "title": "Texo caute inventore curo absque terebro.",
      "due_on": "2021-09-23T00:00:00.000+05:30",
      "status": "completed"
    },
    {
      "id": 22,
      "user_id": 15,
      "title": "Perspiciatis in casso sit tamquam volaticus aut conturbo copia cum arceo.",
      "due_on": "2021-09-27T00:00:00.000+05:30",
      "status": "pending"
    },
    {
      "id": 23,
      "user_id": 15,
      "title": "Pecto sequi sperno voluptatem sordeo consequuntur summopere nemo.",
      "due_on": "2021-09-24T00:00:00.000+05:30",
      "status": "completed"
    },
    {
      "id": 27,
      "user_id": 18,
      "title": "Subiungo architecto audentia tamisium id agnitio aureus.",
      "due_on": "2021-09-25T00:00:00.000+05:30",
      "status": "completed"
    },
    {
      "id": 28,
      "user_id": 18,
      "title": "Color texo voluptatibus crux deludo benevolentia.",
      "due_on": "2021-10-01T00:00:00.000+05:30",
      "status": "pending"
    },
    {
      "id": 29,
      "user_id": 18,
      "title": "Certo dolor acsi repellat studio amplexus cibus conscendo cariosus.",
      "due_on": "2021-09-07T00:00:00.000+05:30",
      "status": "completed"
    },
    {
      "id": 30,
      "user_id": 19,
      "title": "Cornu repellendus veritatis degero capio delego.",
      "due_on": "2021-09-28T00:00:00.000+05:30",
      "status": "completed"
    },
    {
      "id": 37,
      "user_id": 24,
      "title": "Dolores sunt tergo desino dens benevolentia totam colloco amo creator.",
      "due_on": "2021-09-06T00:00:00.000+05:30",
      "status": "pending"
    },
    {
      "id": 38,
      "user_id": 24,
      "title": "Et catena trepide clam aut dolores.",
      "due_on": "2021-09-27T00:00:00.000+05:30",
      "status": "pending"
    },
    {
      "id": 39,
      "user_id": 24,
      "title": "Capio centum curto succedo cinis facilis provident conscendo.",
      "due_on": "2021-09-06T00:00:00.000+05:30",
      "status": "pending"
    },
    {
      "id": 40,
      "user_id": 25,
      "title": "Creptio comitatus uredo animus coma coadunatio fugiat provident excepturi beneficium.",
      "due_on": "2021-10-02T00:00:00.000+05:30",
      "status": "completed"
    },
    {
      "id": 41,
      "user_id": 25,
      "title": "Aut defero admitto ver depraedor.",
      "due_on": "2021-09-24T00:00:00.000+05:30",
      "status": "completed"
    },
    {
      "id": 42,
      "user_id": 27,
      "title": "Consequatur doloribus triginta casso ipsa usitas voluptate carus commodi.",
      "due_on": "2021-09-11T00:00:00.000+05:30",
      "status": "pending"
    },
    {
      "id": 43,
      "user_id": 27,
      "title": "Unde statua bonus cribro angustus agnitio.",
      "due_on": "2021-09-29T00:00:00.000+05:30",
      "status": "pending"
    },
    {
      "id": 46,
      "user_id": 32,
      "title": "Clarus versus undique nobis autus auxilium claudeo.",
      "due_on": "2021-09-29T00:00:00.000+05:30",
      "status": "pending"
    },
    {
      "id": 47,
      "user_id": 32,
      "title": "Officia sumo conqueror saepe iste aptus soleo basium.",
      "due_on": "2021-09-25T00:00:00.000+05:30",
      "status": "pending"
    },
    {
      "id": 56,
      "user_id": 40,
      "title": "Angustus ulciscor color cognomen capto audacia crastinus adamo.",
      "due_on": "2021-09-19T00:00:00.000+05:30",
      "status": "pending"
    },
    {
      "id": 57,
      "user_id": 40,
      "title": "In caste corrumpo absens auxilium adflicto.",
      "due_on": "2021-09-26T00:00:00.000+05:30",
      "status": "pending"
    },
    {
      "id": 58,
      "user_id": 40,
      "title": "Adsidue adduco ceno videlicet sub vorago absque confugo.",
      "due_on": "2021-09-15T00:00:00.000+05:30",
      "status": "pending"
    }
  ]
}